CUNY SPS DATA 607 Project 2
…
We can get totals by precinct, but without population numbers its hard to compare one precinct to another. Also, the numbers are affected by the Statistical Notes we looked at earlier, so this may not be very useful info

tidycrime %>%
  group_by(PCT) %>%
  summarise(Totals = sum(n, na.rm=TRUE)) %>%
  arrange(desc(Totals))

## # A tibble: 78 x 2
##    PCT   Totals
##    <chr>  <int>
##  1 14     70369
##  2 75     65723
##  3 18     56845
##  4 43     48254
##  5 67     46789
##  6 19     46388
##  7 109    45972
##  8 70     44786
##  9 52     44684
## 10 13     44637
## # ... with 68 more rows

Lets look at just the 120, 121, and 122 precincts together since those numbers cant really be separated and lets add the 123rd precint too since that would encompass all of Staten Island, which is where I live

SICrime <- tidycrime %>%
  filter(PCT %in% c('121', '122', '123', '124')) %>%
  group_by(Year, CRIME) %>%
  summarise(Totals = sum(n, na.rm=TRUE)) %>%
  arrange(desc(Year))

SICrime

## # A tibble: 126 x 3
## # Groups:   Year [18]
##    Year  CRIME                                                      Totals
##    <chr> <chr>                                                       <int>
##  1 2017  "BURGLARY                              "                      261
##  2 2017  "FELONY ASSAULT                        "                      335
##  3 2017  "GRAND LARCENY                         "                      767
##  4 2017  "GRAND LARCENY OF MOTOR VEHICLE                              145
##  5 2017  "MURDER & NON NEGL. MANSLAUGHTER                               8
##  6 2017  "RAPE                                  "                       20
##  7 2017  "ROBBERY                               "                      186
##  8 2016  "BURGLARY                              "                      339
##  9 2016  "FELONY ASSAULT                        "                      354
## 10 2016  "GRAND LARCENY                         "                      863
## # ... with 116 more rows
…
Now lets compare that to the rest of the city

NotSICrime <- tidycrime %>%
  filter(!(PCT %in% c('121', '122', '123', '124'))) %>%
  group_by(Year, CRIME) %>%
  summarise(Totals = sum(n, na.rm=TRUE)) %>%
  arrange(desc(Year))

NotSICrime

## # A tibble: 126 x 3
## # Groups:   Year [18]
##    Year  CRIME                                                      Totals
##    <chr> <chr>                                                       <int>
##  1 2017  "BURGLARY                              "                    11822
##  2 2017  "FELONY ASSAULT                        "                    19717
##  3 2017  "GRAND LARCENY                         "                    42383
##  4 2017  "GRAND LARCENY OF MOTOR VEHICLE                             5531
##  5 2017  "MURDER & NON NEGL. MANSLAUGHTER                             284
##  6 2017  "RAPE                                  "                     1429
##  7 2017  "ROBBERY                               "                    13770
##  8 2016  "BURGLARY                              "                    12651
##  9 2016  "FELONY ASSAULT                        "                    20493
## 10 2016  "GRAND LARCENY                         "                    43416
## # ... with 116 more rows
…
