CUNY SPS DATA 607 Project 2
…
##   round(mean(Rating, na.rm = TRUE), 2)
## 1                                 3.98

You can see below that the reviewers who gave the highest average ratings were mostly those who saw very few films.

# Average rating given by each reviewer
avg_rating_by_reviewer <- tidymovies %>% 
  group_by(Reviewer) %>%
  filter(!is.na(Rating)) %>%
  summarise(Avg_Rating = round(mean(Rating, na.rm=TRUE),2),
            Num_Movies = n_distinct(Movie)) %>%
  arrange(desc(Avg_Rating))
avg_rating_by_reviewer

## # A tibble: 24 x 3
##    Reviewer Avg_Rating Num_Movies
##    <chr>         <dbl>      <int>
##  1 Diane          5.00          1
##  2 Michelle       5.00          4
##  3 Mike           5.00          5
##  4 Mercedes       4.57          7
##  5 Anon2          4.50          2
##  6 Anon4          4.50          2
##  7 Tushar         4.44          9
##  8 Cheri          4.25          4
##  9 Brian          4.20          5
## 10 Kerry          4.20          5
## # ... with 14 more rows

avg_rating_by_reviewer %>% arrange(desc(Num_Movies))

## # A tibble: 24 x 3
##    Reviewer Avg_Rating Num_Movies
##    <chr>         <dbl>      <int>
##  1 Betsy          3.70         10
##  2 Tushar         4.44          9
##  3 Chris          3.44          9
##  4 Mercedes       4.57          7
##  5 Gino           4.14          7
##  6 Adam           4.00          7
##  7 Jody           3.17          6
##  8 Mike           5.00          5
##  9 Brian          4.20          5
## 10 Kerry          4.20          5
## # ... with 14 more rows
…
